{
    "clientId": "5q81nn5buesf517ck82hb68cqo@group.calendar.google.com",
    "apiKey": "AIzaSyBGXcAz5NCiKHSMHQ3E4Dt9ugK0xkqbxiY",
    "scope": "https://www.googleapis.com/auth/calendar.readonly",
    "discoveryDocs": ["https://www.googleapis.com/discovery/v1/apis/calendar/v3/rest"]
  }